com\xianzaishi\purchasecenter\component\user\BackGroundUserServiceImpl.class
com\xianzaishi\purchasecenter\component\user\EmployeeServiceImpl.class
com\xianzaishi\purchasecenter\component\purchasereturn\PurchaseReturnServiceImpl.class
com\xianzaishi\purchasecenter\component\user\SupplierServiceImpl.class
com\xianzaishi\dumpcenter\component\itemsalecount\ItemSaleCountServiceImpl.class
com\xianzaishi\purchasecenter\component\role\RoleServiceImpl.class
com\xianzaishi\purchasecenter\component\user\BillServiceImpl.class
com\xianzaishi\purchasecenter\component\logmonitor\LogMonitorServiceImpl.class
com\xianzaishi\purchasecenter\component\purchase\PurchaseServiceImpl.class
com\xianzaishi\customercenter\component\CustomerServiceImpl.class
com\xianzaishi\purchasecenter\component\organization\OrganizationServiceImpl.class
com\xianzaishi\purchasecenter\component\marketactivity\MarketActivityImpl.class
com\xianzaishi\purchasecenter\component\mail\MailServiceImpl.class
com\xianzaishi\settlement\component\finance\FinanceServiceImpl.class
com\xianzaishi\purchasecenter\component\logmonitorconfig\LogMonitorConfigServiceImpl.class
com\xianzaishi\purchasecenter\component\activity\ActivityPageServiceImpl.class
com\xianzaishi\customercenter\component\sessionexpire\SessionExpireServiceImpl.class
